MATH/COSC 3570 - Spring 2025 - Homework 1: Quarto, Basic Syntax and Data Importing
…
Extract the fourth column of tbl as a numerical vector.

Start with tbl, use the pipe operator |> to do the followings sequentially.

extract the first 10 observations (rows) using head()

find the column names colnames()

sort the columns names using sort() in a decreasing order. (alphabetically from z to a)

3.3 Data Importing

Use readxl::read_excel() to read the data sales.xlsx in the data folder. Use arguments sheet, skip and col_names so that the output looks like

# A tibble: 9 x 2
  id      n    
  <chr>   <chr>
1 Brand 1 n    
2 1234    8    
3 8721    2    
4 1822    3    
5 Brand 2 n    
6 3333    1    
# … with 3 more rows
…
    ii. find the column names `colnames()`
    
    iii. sort the columns names using `sort()` in a *decreasing* order. (alphabetically from z to a)

```{r}
#| label: df-5

```

## Data Importing

(@)  Use `readxl::read_excel()` to read the data `sales.xlsx` in the data folder. Use arguments `sheet`, `skip` and `col_names` so that the output looks like

        # A tibble: 9 x 2
          id      n    
          <chr>   <chr>
        1 Brand 1 n    
        2 1234    8    
        3 8721    2    
        4 1822    3    
        5 Brand 2 n    
        6 3333    1    
        # … with 3 more rows
…
