…
    ii. find the column names
    
    iii. sort the columns names using `sort()` in a *decreasing* order. (alphabetically from z to a)

```{r}
#| label: df-6


```

### Data Importing

(@)  Read the data `sales.xlsx` from the data folder. Use arguments `sheet`, `skip` and `col_names` so that the output looks like

        # A tibble: 9 x 2
          id      n    
          <chr>   <chr>
        1 Brand 1 n    
        2 1234    8    
        3 8721    2    
        4 1822    3    
        5 Brand 2 n    
        6 3333    1    
        # … with 3 more rows
…
