MATH/COSC 3570 - Spring 2025 - Homework 2: Data Visualization and Data Wrangling
…
## code

1.3 Pivoting

The R built-in co2 data set is not tidy. Let’s make it tidy. Run the following code to define the co2_wide object:

co2_wide <- data.frame(matrix(co2, ncol = 12, byrow = TRUE)) |> 
    setNames(1:12) |> 
    mutate(year = as.character(1959:1997))

Use the pivot_longer() function to make it tidy. Call the column with the CO2 measurements co2 and call the month column month. Call the resulting object co2_tidy. Print it out.

## code

## # A tibble: 468 x 3
##    year  month   co2
##    <chr> <chr> <dbl>
##  1 1959  1      315.
##  2 1959  2      316.
##  3 1959  3      316.
##  4 1959  4      318.
##  5 1959  5      318.
##  6 1959  6      318 
##  7 1959  7      316.
##  8 1959  8      315.
##  9 1959  9      314.
## 10 1959  10     313.
## # … with 458 more rows
…
```

## Pivoting

1. The R built-in `co2` data set is not tidy. Let's make it tidy. Run the following code to define the `co2_wide` object:
```{r}
co2_wide <- data.frame(matrix(co2, ncol = 12, byrow = TRUE)) |> 
    setNames(1:12) |> 
    mutate(year = as.character(1959:1997))
```
Use the `pivot_longer()` function to make it tidy. Call the column with the CO2 measurements `co2` and call the month column `month`. Call the resulting object `co2_tidy`. Print it out.
```{r}
## code

## # A tibble: 468 x 3
##    year  month   co2
##    <chr> <chr> <dbl>
##  1 1959  1      315.
##  2 1959  2      316.
##  3 1959  3      316.
##  4 1959  4      318.
##  5 1959  5      318.
##  6 1959  6      318 
##  7 1959  7      316.
##  8 1959  8      315.
##  9 1959  9      314.
## 10 1959  10     313.
## # … with 458 more rows
```
…
